/home/josue/Bucares/Proyectos/Testamento/testamento-electronic-signature/src/main/java/fr/testamento/ElectronicSignatureApplication.java
/home/josue/Bucares/Proyectos/Testamento/testamento-electronic-signature/src/main/java/fr/testamento/es/utils/EsResponse.java
/home/josue/Bucares/Proyectos/Testamento/testamento-electronic-signature/src/main/java/fr/testamento/es/utils/Messages.java
/home/josue/Bucares/Proyectos/Testamento/testamento-electronic-signature/src/main/java/fr/testamento/es/pojo/AuthenticationRequestPojo.java
/home/josue/Bucares/Proyectos/Testamento/testamento-electronic-signature/src/main/java/fr/testamento/es/pojo/OperationModeConfig.java
/home/josue/Bucares/Proyectos/Testamento/testamento-electronic-signature/src/main/java/fr/testamento/WebConfig.java
/home/josue/Bucares/Proyectos/Testamento/testamento-electronic-signature/src/main/java/fr/testamento/es/pojo/AuthenticationResponsePojo.java
/home/josue/Bucares/Proyectos/Testamento/testamento-electronic-signature/src/main/java/fr/testamento/es/utils/YouSignErrorResponse.java
/home/josue/Bucares/Proyectos/Testamento/testamento-electronic-signature/src/main/java/fr/testamento/es/exceptions/RestException.java
/home/josue/Bucares/Proyectos/Testamento/testamento-electronic-signature/src/main/java/fr/testamento/es/pojo/FileResponsePojo.java
/home/josue/Bucares/Proyectos/Testamento/testamento-electronic-signature/src/main/java/fr/testamento/es/controller/ElectronicSignatureController.java
/home/josue/Bucares/Proyectos/Testamento/testamento-electronic-signature/src/main/java/fr/testamento/es/utils/Response.java
/home/josue/Bucares/Proyectos/Testamento/testamento-electronic-signature/src/main/java/fr/testamento/es/service/ElectronicSignatureService.java
/home/josue/Bucares/Proyectos/Testamento/testamento-electronic-signature/src/main/java/fr/testamento/es/pojo/MemberPojo.java
/home/josue/Bucares/Proyectos/Testamento/testamento-electronic-signature/src/main/java/fr/testamento/es/pojo/OperationResponsePojo.java
/home/josue/Bucares/Proyectos/Testamento/testamento-electronic-signature/src/main/java/fr/testamento/es/utils/Utilities.java
/home/josue/Bucares/Proyectos/Testamento/testamento-electronic-signature/src/main/java/fr/testamento/es/pojo/OperationRequestPojo.java
/home/josue/Bucares/Proyectos/Testamento/testamento-electronic-signature/src/main/java/fr/testamento/es/pojo/ProcedureResponsePojo.java
/home/josue/Bucares/Proyectos/Testamento/testamento-electronic-signature/src/main/java/fr/testamento/es/pojo/ProcedureRequestPojo.java
/home/josue/Bucares/Proyectos/Testamento/testamento-electronic-signature/src/main/java/fr/testamento/es/controller/AppController.java
/home/josue/Bucares/Proyectos/Testamento/testamento-electronic-signature/src/main/java/fr/testamento/es/security/APIKeyAuthFilter.java
/home/josue/Bucares/Proyectos/Testamento/testamento-electronic-signature/src/main/java/fr/testamento/es/pojo/FileObjectRequestPojo.java
/home/josue/Bucares/Proyectos/Testamento/testamento-electronic-signature/src/main/java/fr/testamento/es/Constants.java
/home/josue/Bucares/Proyectos/Testamento/testamento-electronic-signature/src/main/java/fr/testamento/es/pojo/FileRequestPojo.java
/home/josue/Bucares/Proyectos/Testamento/testamento-electronic-signature/src/main/java/fr/testamento/es/URLConstants.java
/home/josue/Bucares/Proyectos/Testamento/testamento-electronic-signature/src/main/java/fr/testamento/es/pojo/FileObjectResponsePojo.java
/home/josue/Bucares/Proyectos/Testamento/testamento-electronic-signature/src/main/java/fr/testamento/es/security/RestAuthenticationEntryPoint.java
/home/josue/Bucares/Proyectos/Testamento/testamento-electronic-signature/src/main/java/fr/testamento/es/security/APISecurityConfig.java
/home/josue/Bucares/Proyectos/Testamento/testamento-electronic-signature/src/main/java/fr/testamento/es/ErrorExceptionHandler.java
